…
``` r
hanzi_decompose("好")
#> # A tibble: 2 × 5
#>   component is_intermediate definition                 radical_name pinyin_toned
#>   <chr>     <lgl>           <chr>                      <chr>        <chr>
#> 1 女        FALSE           woman, girl; female        woman        nǚ
#> 2 子        FALSE           son, child; seed, egg; fr… child        zi
```

### Find where a component appears

``` r
hanzi_components_of("女")
#> # A tibble: 249 × 2
#>    char   rank
#>    <chr> <int>
#>  1 要       26
#>  2 如       67
#>  3 好       82
#>  4 她       91
#>  5 数      231
#>  6 安      232
#>  7 接      247
#>  8 始      381
#>  9 委      457
#> 10 案      518
#> # ℹ 239 more rows
```
…
